Timestep Time           Niter Error
00000000 0.00000000e+00 00000 0.00000000e+00
00000001 5.00000000e-04 00002 9.80699815e-02
00000002 1.00000000e-03 00004 6.64274403e-02
00000003 1.50000000e-03 00004 8.18218104e-02
00000004 2.00000000e-03 00012 4.10887040e-02
00000005 2.50000000e-03 00008 7.18800541e-02
00000006 3.00000000e-03 00006 7.56542962e-02
00000007 3.45454545e-03 00005 5.44826182e-02
00000008 3.95454545e-03 00011 2.95816702e-02
00000009 4.40909091e-03 00001 9.32556553e-02
00000010 4.90909091e-03 00006 4.09393188e-02
00000011 5.36363636e-03 00003 3.97465773e-02
