0.0000000e+00 0.0000000e+00 0.0000000e+00
1.0000000e-01 -1.1424918e+02 1.6226745e+04
1.0000000e-01 -1.1424918e+02 1.6226745e+04
2.0000000e-01 -1.0080626e+02 -2.0799052e+02
1.0000000e-01 -1.1424918e+02 1.6226745e+04
2.0000000e-01 -1.0080626e+02 -2.0799052e+02
1.0000000e-01 -1.1424918e+02 1.6226745e+04
2.0000000e-01 -1.0080626e+02 -2.0799052e+02
