0.0000000e+00 0.0000000e+00 0.0000000e+00
1.0000000e-01 -7.7164535e+03 -2.2919046e-01
1.0000000e-01 -7.7164535e+03 -2.2919046e-01
2.0000000e-01 7.3802090e+02 -5.5865245e-01
1.0000000e-01 -7.7164535e+03 -2.2919046e-01
2.0000000e-01 7.3802090e+02 -5.5865245e-01
1.0000000e-01 -7.7164535e+03 -2.2919046e-01
2.0000000e-01 7.3802090e+02 -5.5865245e-01
